^E:\PROGRAMS\NHDNOTIFY\NHDNOTIFY\FORM1.RESX
C:\WINDOWS\ASSEMBLY\PUBPOL13.DAT
C:\WINDOWS\MICROSOFT.NET\ASSEMBLY\GAC_MSIL\MICROSOFT.BUILD.TASKS.V4.0\V4.0_4.0.0.0__B03F5F7F11D50A3A\MICROSOFT.BUILD.TASKS.V4.0.DLL
^E:\PROGRAMS\NHDNOTIFY\NHDNOTIFY\PROPERTIES\RESOURCES.RESX
